1 10 20
100 200 125
201 210 89
900 1000 174
1 1 1
200 200 27
138 11 122
999990 999999 259
153784 374016 443
629827 890073 525
835641 279081 509
783686 83001 509
779822 424982 509
889373 516322 525
443310 57583 449
773351 797695 468
377735 423047 449
709181 821235 468
541792 317057 470
434713 687228 509
210222 921886 525
440830 767250 509
10120 753268 509
772398 393423 509
719180 376721 509
982069 915998 507
886900 732680 525
734903 773562 468
46180 801787 509
263538 80798 443
905718 44903 525
586382 12901 470
285660 43781 443
289974 686549 509
302310 581218 470
635767 227887 509
445503 678266 509
293366 971017 525
700022 728092 504
219542 79198 386
257413 7062 443
982758 475777 525
412691 559171 470
556360 114316 470
376559 851562 525
207951 105537 383
307724 29520 443
42002 964760 525
325480 813227 509
216654 352790 443
493170 957941 525
686207 129821 509
643425 779337 504
585147 487374 470
862469 851511 419
19663 171939 383
690550 863668 525
762397 187414 509
895562 597769 525
328133 71481 443
965106 100911 525
126853 451665 449
704523 465876 509
575320 199152 470
712625 459725 509
132019 456326 449
874886 72789 525
481287 888869 525
809914 187163 509
349457 956165 525
303146 230841 407
189808 293106 443
933529 721280 525
475154 610147 470
828065 717460 468
675999 754500 504
634359 542843 509
381946 792306 509
184867 53940 383
394441 299466 441
334807 622478 470
820841 879200 525
523538 405244 470
195738 923531 525
776370 851712 525
878725 844106 432
836699 896623 525
713628 718363 380
204053 186605 360
396809 356474 436
981319 103965 525
826636 709246 468
170914 590738 470
514724 171562 470
710418 440372 509
211939 895261 525
636570 78199 509
650455 290514 509
217611 852260 525
294095 828989 509
666652 280459 509
415153 856060 525
781703 779645 362
393143 41756 443
959266 129042 525
744759 506713 509
280525 745907 509
868189 290446 525
327583 252817 407
381600 695421 509
350744 790813 509
204228 438725 449
513939 32531 470
613075 820479 509
614501 305833 470
946941 841216 507
650140 583561 509
677304 516472 509
546041 482944 470
5022 104421 351
248360 293042 407
252763 227699 443
755859 616420 509
887973 726666 525
797783 946863 525
213365 109549 383
793491 93609 509
383944 948863 525
430507 739217 509
432043 716121 509
611523 20361 470
60540 265128 443
428186 708075 509
669658 356142 509
995039 36833 525
544887 718927 509
934675 349705 525
55936 876144 525
662114 911638 525
549049 680763 509
222173 824830 509
374188 887016 525
4387 537551 470
33062 56896 340
353344 498952 449
192397 523580 470
661055 156234 509
946572 849390 507
964308 189491 525
852875 727694 525
463487 476991 413
27800 19419 308
618029 577785 447
84225 688184 509
668010 482275 509
805828 763959 468
511148 583759 470
173605 103666 383
